<?xml version="1.0" standalone="no"?>
<!DOCTYPE svg PUBLIC "-//W3C//DTD SVG 1.1//EN" "http://www.w3.org/Graphics/SVG/1.1/DTD/svg11.dtd">
<svg width="16px" height="16px" version="1.1" xmlns="http://www.w3.org/2000/svg" xmlns:xlink="http://www.w3.org/1999/xlink" xml:space="preserve" style="fill-rule:evenodd;clip-rule:evenodd;stroke-linejoin:round;stroke-miterlimit:1.41421;">
    <g>
        <path id="Capa_1" d="M9.207,8.5L11.975,5.732C12.17,5.537 12.17,5.22 11.975,5.025C11.78,4.83 11.463,4.83 11.268,5.025L8.5,7.793L5.732,5.025C5.537,4.83 5.22,4.83 5.025,5.025C4.83,5.22 4.83,5.537 5.025,5.732L7.793,8.5L5.025,11.268C4.83,11.463 4.83,11.78 5.025,11.975C5.22,12.17 5.537,12.17 5.732,11.975L8.5,9.207L11.268,11.975C11.463,12.17 11.78,12.17 11.975,11.975C12.17,11.78 12.17,11.463 11.975,11.268Z" style="fill:rgb(203,184,184);fill-rule:nonzero;"/>
    </g>
</svg>
